<?xml version="1.0" encoding="utf-8"?>
<!-- Generator: Adobe Illustrator 18.0.0, SVG Export Plug-In . SVG Version: 6.00 Build 0)  -->
<!DOCTYPE svg PUBLIC "-//W3C//DTD SVG 1.1 Tiny//EN" "http://www.w3.org/Graphics/SVG/1.1/DTD/svg11-tiny.dtd">
<svg version="1.1" baseProfile="tiny" id="Layer_1" xmlns="http://www.w3.org/2000/svg" xmlns:xlink="http://www.w3.org/1999/xlink"
	 x="0px" y="0px" viewBox="0 0 32 32" xml:space="preserve">
<g>
	<path fill="#231F20" d="M16,29c-0.3,0-0.6-0.2-0.8-0.4L7.6,17.4c-0.9-1.5-1.4-3.2-1.4-4.9C6.2,7.2,10.6,3,16,3s9.8,4.2,9.8,9.5
		c0,1.7-0.5,3.4-1.4,4.9l-7.6,11.2C16.7,28.8,16.3,29,16,29L16,29z M16,5c-4.3,0-7.8,3.3-7.8,7.5c0,1.4,0.4,2.7,1.1,3.8l6.7,9.9
		l6.7-10c0.7-1.1,1.1-2.4,1.1-3.8C23.8,8.3,20.3,5,16,5z"/>
	<path fill="#231F20" d="M16,17c-2.6,0-4.7-2.1-4.7-4.6s2.1-4.6,4.7-4.6s4.7,2.1,4.7,4.6S18.6,17,16,17z M16,9.8
		c-1.5,0-2.7,1.2-2.7,2.6S14.5,15,16,15s2.7-1.2,2.7-2.6S17.5,9.8,16,9.8z"/>
</g>
</svg>
