<?xml version="1.0" encoding="utf-8"?>
<!-- Generator: Adobe Illustrator 18.0.0, SVG Export Plug-In . SVG Version: 6.00 Build 0)  -->
<!DOCTYPE svg PUBLIC "-//W3C//DTD SVG 1.1 Tiny//EN" "http://www.w3.org/Graphics/SVG/1.1/DTD/svg11-tiny.dtd">
<svg version="1.1" baseProfile="tiny" id="Layer_1" xmlns="http://www.w3.org/2000/svg" xmlns:xlink="http://www.w3.org/1999/xlink"
	 x="0px" y="0px" viewBox="0 0 32 32" xml:space="preserve">
<path fill="#231F20" d="M16,25.6c-5.2,0-9.6-4.2-9.7-9.5c-0.1-5.3,4.1-9.8,9.5-9.9H16c5.2,0,9.6,4.2,9.7,9.5c0.1,2.6-0.9,5-2.7,6.9
	c-1.8,1.9-4.2,2.9-6.8,3H16z M16,7.1h-0.2c-4.9,0.1-8.7,4.1-8.6,9c0.1,4.8,4.1,8.6,8.8,8.6h0.2c2.4,0,4.6-1,6.2-2.7s2.5-3.9,2.5-6.3
	C24.7,10.9,20.8,7.1,16,7.1z M12.6,19.8c-1.1,0-1.8-0.4-2.5-0.9l0.7-1c0.6,0.5,1.1,0.7,1.8,0.7c1.1,0,1.8-1,1.9-2.4
	c-0.4,0.5-1,0.8-1.8,0.8c-1.6,0-2.7-1-2.7-2.5s1.2-2.7,2.9-2.7c1,0,1.6,0.3,2.1,0.8c0.6,0.6,0.9,1.4,0.9,2.9
	C15.9,18.1,14.7,19.8,12.6,19.8z M12.8,13c-1,0-1.5,0.6-1.5,1.4c0,0.8,0.6,1.4,1.6,1.4s1.6-0.6,1.6-1.4C14.4,13.6,13.8,13,12.8,13z
	 M21.4,13.7c-0.5-0.4-1-0.7-1.7-0.7c-1.1,0-1.8,1-1.8,2.4c0.4-0.4,0.9-0.8,1.8-0.8c1.5,0,2.7,0.9,2.7,2.4s-1.2,2.6-2.9,2.6
	c-0.9,0-1.6-0.3-2.1-0.8c-0.6-0.6-0.9-1.4-0.9-3c0-2.4,1.1-4.2,3.3-4.2c1,0,1.7,0.3,2.4,0.9L21.4,13.7z M19.5,15.9
	c-1,0-1.6,0.6-1.6,1.4s0.6,1.4,1.6,1.4s1.5-0.6,1.5-1.4C21.1,16.4,20.5,15.9,19.5,15.9z"/>
<path fill="#221F1F" d="M16,29.6c-7.4,0-13.5-6-13.6-13.4C2.2,8.8,8.2,2.5,15.7,2.3H16c7.4,0,13.5,6,13.6,13.4
	c0.1,3.6-1.3,7.1-3.8,9.7s-5.9,4.1-9.6,4.2L16,29.6z M16,3.2h-0.3c-7,0.1-12.6,6-12.5,13C3.4,23.1,9.1,28.8,16,28.8h0.3
	c3.4-0.1,6.6-1.5,9-3.9c2.4-2.5,3.6-5.7,3.6-9.1C28.7,8.9,22.9,3.2,16,3.2z"/>
</svg>
