<?xml version="1.0" encoding="utf-8"?>
<!-- Generator: Adobe Illustrator 18.0.0, SVG Export Plug-In . SVG Version: 6.00 Build 0)  -->
<!DOCTYPE svg PUBLIC "-//W3C//DTD SVG 1.1 Tiny//EN" "http://www.w3.org/Graphics/SVG/1.1/DTD/svg11-tiny.dtd">
<svg version="1.1" baseProfile="tiny" id="Layer_1" xmlns="http://www.w3.org/2000/svg" xmlns:xlink="http://www.w3.org/1999/xlink"
	 x="0px" y="0px" viewBox="0 0 32 32" xml:space="preserve">
<path fill="#231F20" d="M28,12.4h-5.5v-8c0-0.6-0.4-1-1-1h-11c-0.6,0-1,0.4-1,1v8H4c-0.6,0-1,0.4-1,1v10.4c0,0.6,0.4,1,1,1h5.3v2.7
	c0,0.6,0.4,1,1,1h11c0.6,0,1-0.4,1-1v-2.7h5.6c0.6,0,1-0.4,1-1V13.4C29,12.8,28.6,12.4,28,12.4z M11.5,5.4h9v7h-9V5.4z M20.4,26.5
	h-9v-2.6l0,0l0,0v-2h9V26.5z M27,22.8h-4.6v-2c0-0.6-0.4-1-1-1h-11c-0.6,0-1,0.4-1,1v2H5v-8.4h5.3c0.1,0,0.1,0,0.2,0h11
	c0.1,0,0.1,0,0.2,0H27C27,14.4,27,22.8,27,22.8z"/>
</svg>
