<?xml version="1.0" encoding="utf-8"?>
<!-- Generator: Adobe Illustrator 18.0.0, SVG Export Plug-In . SVG Version: 6.00 Build 0)  -->
<!DOCTYPE svg PUBLIC "-//W3C//DTD SVG 1.1 Tiny//EN" "http://www.w3.org/Graphics/SVG/1.1/DTD/svg11-tiny.dtd">
<svg version="1.1" baseProfile="tiny" id="Layer_1" xmlns="http://www.w3.org/2000/svg" xmlns:xlink="http://www.w3.org/1999/xlink"
	 x="0px" y="0px" viewBox="0 0 32 32" xml:space="preserve">
<path fill="#231F20" d="M27.5,25.7L22,20.2c3-3.9,2.8-9.6-0.8-13.2c-1.9-1.9-4.4-2.9-7.1-2.9S8.9,5.1,7,7c-3.9,3.9-3.9,10.3,0,14.2
	c1.8,1.9,4.3,2.9,7,2.9c2.3,0,4.4-0.8,6.2-2.1l5.5,5.5c0.2,0.2,0.6,0.4,0.9,0.4s0.6-0.1,0.9-0.4C28,27,28,26.2,27.5,25.7z
	 M19.4,19.4c-1.4,1.4-3.3,2.2-5.3,2.2s-3.9-0.8-5.3-2.2c-3-2.9-3-7.7-0.1-10.7C10.1,7.3,12,6.5,14,6.5s3.9,0.8,5.3,2.2
	C22.3,11.7,22.3,16.5,19.4,19.4z"/>
</svg>
